{
   "channel_config":{
      "mask_dir":"/external_data/Data/Cirrus_16_05_21/results",
      "channels_dir":"/external_data/Data/Cirrus_16_05_21/data",
      "channels_suffixes":[
         "_g.rec.fits",
         "_r.rec.fits",
         "_i.rec.fits"
      ]
   },
   "dataset_name":"20x500image128",
   "data_dir":"/external_data/Data/Cirrus/PNGDataset/ForUNetDatasets",
   "generator_dir":"/external_data/Data/Cirrus/UNetSegmentation",
   "n_train_fields":15,
   "n_train":500,
   "n_test":200,
   "scale": 1,
   "shape":[
      128,
      128
   ],
   "augmentation":true,
   "models_dir":"/external_data/Data/Cirrus/UNetSegmentation",
   "model_type": "unet_shallow_decoder_model",
   "mode": "standard",
   "learning_rate": 1.0e-3,
   "target_names": [
      "background",
      "cirrus"
   ],
   "weights": [
      1.0,
      9.0
   ],
   "epochs":3,
   "batch_size":32,
   "buffer_size":1000,
   "GPU":true
}